{
  "schemaVersion": "1.0.0",
  "projectName": "@getflights/ember-mist-components",
  "packages": [
    {
      "name": "@embroider/addon-blueprint",
      "version": "2.17.0",
      "blueprints": [
        {
          "name": "@embroider/addon-blueprint",
          "isBaseBlueprint": true,
          "options": [
            "--addon-location=addon",
            "--ci-provider=github",
            "--pnpm",
            "--typescript"
          ]
        }
      ]
    }
  ]
}
